{
    "cart": [
        {
            "100": {
                "id": "100",
                "qty": "4",
                "harga": "320000"
            }
        },
        {
            "102": {
                "id": "102",
                "qty": "1",
                "harga": "320000"
            }
        },
        {
            "105": {
                "id": "105",
                "qty": "1",
                "harga": "70000"
            }
        },
        {
            "106": {
                "id": "106",
                "qty": "1",
                "harga": "82000"
            }
        },
        {
            "107": {
                "id": "107",
                "qty": "1",
                "harga": "60000"
            }
        }
    ]
}